"id";"p0r0";"p0r1";"p1r0";"p1r1";"PopNoMinekm";"PopMinekm";"EstNoMinekm";"EstMinekm";"CI_NoMine";"CI_Mine";"OA";"CI_OA";"PA_NoMine";"PA_Mine";"UA_NoMine";"UA_Mine";"CI_PANoMine";"CI_PAMine";"CI_UANoMine";"CI_UAMine";"varAreaNoMine";"varAreaMine";"varOA";"varPANoMine";"varPAMine";"varUANoMine";"varUAMine"
5;1;0;0;0;17446,47722887;0;17446,47722887;0;0;0;100;0;100;100;100;100;0;0;0;0;0;0;0;0;0;0;0
6;1;0;0;0;50697,7407883;0;50697,7407883;0;0;0;100;0;100;100;100;100;0;0;0;0;0;0;0;0;0;0;0
7;1;0;0;0;24829,71456314;0;24829,71456314;0;0;0;100;0;100;100;100;100;0;0;0;0;0;0;0;0;0;0;0
20;1;0;0;0;2853,80349717;0;2853,80349717;0;0;0;100;0;100;100;100;100;0;0;0;0;0;0;0;0;0;0;0
21;1;0;0;0;7504,57408914;0;7504,57408914;0;0;0;100;0;100;100;100;100;0;0;0;0;0;0;0;0;0;0;0
22;1;0;0;0;4471,08974228;0;4471,08974228;0;0;0;100;0;100;100;100;100;0;0;0;0;0;0;0;0;0;0;0
23;1;0;0;0;48633,88140528;0;48633,88140528;0;0;0;100;0;100;100;100;100;0;0;0;0;0;0;0;0;0;0;0
24;1;0;0;0;61845,18535723;0;61845,18535723;0;0;0;100;0;100;100;100;100;0;0;0;0;0;0;0;0;0;0;0
25;1;0;0;0;52596,2498221;0;52596,2498221;0;0;0;100;0;100;100;100;100;0;0;0;0;0;0;0;0;0;0;0
26;1;0;0;0;6874,67030099;0;6874,67030099;0;0;0;100;0;100;100;100;100;0;0;0;0;0;0;0;0;0;0;0
38;0,999995503270712;0;4,49672928803623e-06;0;28619,69735049;0,12869561;28619,8260461;0;0;0;99,9995503270712;0;99,9995503270712;100;100;0;0;0;0;0;0;0;0;0;0;0;0
39;1;0;0;0;61408,00481445;0;61408,00481445;0;0;0;100;0;100;100;100;100;0;0;0;0;0;0;0;0;0;0;0
40;1;0;0;0;62192,63864589;0;62192,63864589;0;0;0;100;0;100;100;100;100;0;0;0;0;0;0;0;0;0;0;0
41;1;0;0;0;62093,43417876;0;62093,43417876;0;0;0;100;0;100;100;100;100;0;0;0;0;0;0;0;0;0;0;0
42;1;0;0;0;61845,21440637;0;61845,21440637;0;0;0;100;0;100;100;100;100;0;0;0;0;0;0;0;0;0;0;0
43;1;0;0;0;61190,66082012;0;61190,66082012;0;0;0;100;0;100;100;100;100;0;0;0;0;0;0;0;0;0;0;0
44;1;0;0;0;9670,63442719;0;9670,63442719;0;0;0;100;0;100;100;100;100;0;0;0;0;0;0;0;0;0;0;0
56;1;0;0;0;6625,45760333;0;6625,45760333;0;0;0;100;0;100;100;100;100;0;0;0;0;0;0;0;0;0;0;0
57;1;0;0;0;62086,55507164;0;62086,55507164;0;0;0;100;0;100;100;100;100;0;0;0;0;0;0;0;0;0;0;0
58;1;0;0;0;62247,61430703;0;62247,61430703;0;0;0;100;0;100;100;100;100;0;0;0;0;0;0;0;0;0;0;0
59;1;0;0;0;62093,40500955;0;62093,40500955;0;0;0;100;0;100;100;100;100;0;0;0;0;0;0;0;0;0;0;0
60;1;0;0;0;61845,18535376;0;61845,18535376;0;0;0;100;0;100;100;100;100;0;0;0;0;0;0;0;0;0;0;0
61;0,999630431644722;0;0;0,000369568355277583;48369,64309649;17,88249825;48369,64309649;17,88249825;5,9825249476684e-05;0;100;0;100;100;100;100;0;0;0;0;3,97929399507225e-19;0;0;0;0;0;0
62;1;0;0;0;5218,17831937;0;5218,17831937;0;0;0;100;0;100;100;100;100;0;0;0;0;0;0;0;0;0;0;0
73;0,991666666666667;0,00833333333333333;0;0;17181,68262717;0;17038,5019386103;143,18068855975;396,869327695955;0;99,1666666666667;0;100;0;99,1666666666667;100;0;0;1,63330332045004;0;0,000138888888888889;0;0;0;0;6,94444444444442e-05;0
74;0,991701244813278;0,00829875518672199;0;0;40160,48056513;0;39827,1985687389;333,28199639112;651,858412603154;0;99,1701244813278;0;100;0;99,1701244813278;100;0;0;1,14772905463039;0;6,85823820756069e-05;0;0;0;0;3,42911910378034e-05;0
75;1;0;0;0;62309,68158337;0;62309,68158337;0;0;0;100;0;100;100;100;100;0;0;0;0;0;0;0;0;0;0;0
76;1;0;0;0;62247,61708269;0;62247,61708269;0;0;0;100;0;100;100;100;100;0;0;0;0;0;0;0;0;0;0;0
77;1;0;0;0;62093,40501301;0;62093,40501301;0;0;0;100;0;100;100;100;100;0;0;0;0;0;0;0;0;0;0;0
78;1;0;0;0;61845,18535729;0;61845,18535729;0;0;0;100;0;100;100;100;100;0;0;0;0;0;0;0;0;0;0;0
79;0,99097002527331;0,00814495911183542;0;0,000885015614854717;61448,64653154;54,43118414;60947,7064782937;555,37123738625;799,468983200811;0;99,1855040888165;0,919157155001177;100;9,80086480462512;99,1847826086957;100;0;9,97625716907449;0,919971344005841;0;4,3985887394581e-05;0;2,19929436972905e-05;0;0,00259083102927879;2,20319236336102e-05;0
80;0,999918312599658;0;0;8,16874003421695e-05;53942,92877566;4,4068176;53942,92877566;4,4068176;0;0;100;0;100;100;100;100;0;0;0;0;0;0;0;0;0;0;0
81;1;0;0;0;621,62807657;0;621,62807657;0;0;0;100;0;100;100;100;100;0;0;0;0;0;0;0;0;0;0;0
91;0,995501720209005;0,00444420410807591;0;5,40756829195359e-05;37874,72096425;2,04821216;37706,3888710755;170,380305334444;466,584183382495;0;99,5555795891924;0;100;1,20214138364144;99,5555555555556;100;0;0;0,871095104240027;0;3,95019003084773e-05;0;0;0;0;1,97530864197532e-05;0
92;0,994316271550017;0,0056818072660001;9,60591991418465e-07;9,60591991418465e-07;62277,75746856;0,11964726;61923,9663974823;353,910718337727;692,546363249139;0,16581959520696;99,4317232142009;0,786321349499355;99,9999033917989;0,0169035937314879;99,4318181818182;50;0,000189349953175394;0,0405502030686003;0,786322837630708;97,9981992270027;3,21909596375783e-05;1,84547394795458e-12;1,60954807415263e-05;9,33327843432284e-13;4,28045449829292e-08;1,60955416637236e-05;0,25
93;1;0;0;0;62309,68154131;0;62309,68154131;0;0;0;100;0;100;100;100;100;0;0;0;0;0;0;0;0;0;0;0
94;1;0;0;0;62247,61712475;0;62247,61712475;0;0;0;100;0;100;100;100;100;0;0;0;0;0;0;0;0;0;0;0
95;1;0;0;0;62093,4050095;0;62093,4050095;0;0;0;100;0;100;100;100;100;0;0;0;0;0;0;0;0;0;0;0
96;0,999997122182447;0;7,19454388331345e-07;2,15836316499403e-06;61845,0073747;0,17797916;61845,05186949;0,13348437;6,83669787153313e-05;0,123330999249272;99,9999280545612;0,000141010468964873;99,9999280544059;100;100;75;0,000141010671866293;0;0;48,9990996135013;3,18115479835288e-19;1,03522923377846e-12;5,1761461688923e-13;5,17616106492339e-13;0;0;0,0625
97;0,994004387697265;0,00563175290480037;0;0,000363859397934595;61480,69924628;22,37847283;61134,3291096812;368,748609428761;677,913454774847;0;99,43682470952;0,779403598496581;100;6,06876128012175;99,4366197183099;100;0;7,88912648335511;0,779687295046334;0;3,16270457502736e-05;0;1,58135228751367e-05;0;0,0016201739905448;1,58250369568409e-05;0
98;0,994410796801801;0,00558657751012248;0;2,62568807694132e-06;61070,09449269;0,16035144;60728,9207804403;341,334063689665;667,75099364292;0;99,4413422489878;0,773160775166397;100;0,0469778604182291;99,4413407821229;100;0;0,0649850035660142;0,773162805250756;0;3,11224257324136e-05;0;1,55612128662072e-05;0;1,09933514469167e-07;1,55612945843112e-05;0
99;1;0;0;0;18585,1898172;0;18585,1898172;0;0;0;100;0;100;100;100;100;0;0;0;0;0;0;0;0;0;0;0
100;1;0;0;0;51,74347486;0;51,74347486;0;0;0;100;0;100;100;100;100;0;0;0;0;0;0;0;0;0;0;0
109;1;0;0;0;17132,05699585;0;17132,05699585;0;0;0;100;0;100;100;100;100;0;0;0;0;0;0;0;0;0;0;0
110;0,999978178972215;0;2,18210277850719e-05;0;31206,94849794;0,68098255;31207,62948049;0;0;0;99,9978178972215;0;99,9978178972215;100;100;0;0;0;0;0;6,10012650892943e-19;0;0;0;0;0;0
111;0,996156270211292;0,00283805205188402;0;0,00100567773682412;62247,01933869;62,66346078;62070,1812155687;239,501583901278;490,161262249195;0;99,7161947948116;0,556247980794266;100;26,1641112176651;99,7159090909091;100;0;37,8635721919316;0,556807950153421;0;1,6109078898406e-05;0;8,05453944920303e-06;0;0,0373204599099299;8,07076446280983e-06;0
112;0,994204766415916;0,00563288819499103;0,000103310702150054;5,90346869428879e-05;62237,51020409;10,10561341;61893,3071886825;354,30862881746;686,258388019101;4,2610055479049;99,4263801102859;0,779575743144216;99,9896097895082;1,03716596600884;99,4366197183099;36,3636363636364;0,00486820768157319;1,65107006890008;0,779687295046334;29,8149730783839;3,16397982607232e-05;1,21978299185568e-09;1,58205090218576e-05;6,16938697956573e-10;7,09634672570861e-05;1,58250369568409e-05;0,0231404958677686
113;0,999997658471943;0;1,17076402855993e-06;1,17076402855993e-06;62093,25961953;0,14539345;62093,332316255;0,072696725;0;0,201501338390394;99,9998829235972;0,000229465533037249;99,9998829234601;100;100;50;0,000229465533036935;0;0;97,9981992270027;3,1720657846433e-19;2,74137682113977e-12;1,37068841056988e-12;1,37068841056613e-12;0;0;0,25
114;1;0;0;0;61845,05118929;0;61845,05118929;0;0;0;100;0;100;100;100;100;0;0;0;0;0;0;0;0;0;0;0
115;0,994069902374966;0,00569667565830926;0;0,000233421966724514;61488,7215463;14,35616936;61138,3584605661;364,719255093903;685,717329221016;0;99,4303324341691;0,788375787811758;100;3,93622468775436;99,4301994301994;100;0;5,23300700162546;0,788559855003993;0;3,23593932315273e-05;0;1,61796966157639e-05;0;0,000712863616591181;1,61872526544892e-05;0
116;0,999750860320795;0;5,53643731567409e-05;0,000193775306048593;61055,039817;15,2150237;61058,4209333778;11,8339073222222;0;6,19886583681524;99,9944635626843;0,00717740589147907;99,9944624896516;100;100;77,7777777777778;0,0071783994384332;0;0;28,8087626763124;0;2,682062088159e-09;1,3410310440795e-09;1,34140233965562e-09;0;0;0,0216049382716049
117;0,997081177000194;0,00273172925205533;0;0,000187093747750567;58974,96994077;11,0359129;58813,8361431176;172,169710552377;446,631892796829;0;99,7268270747945;0,535409094954298;100;6,40990384696191;99,7267759562842;100;0;11,7578928824193;0,535509285393458;0;1,49246894130692e-05;0;7,46234470653476e-06;0;0,00359884230151571;7,46513780644391e-06;0
118;0,995096468034312;0,00469385126431279;0;0,000209680701375241;33396,79590308;7,00413222;33240,0034340515;163,796601248545;434,598564911777;0;99,5306148735687;0;100;4,27611572316567;99,5305164319249;100;0;0;0,920170884760584;0;4,40644793829817e-05;0;0;0;0;2,20414820692541e-05;0
119;1;0;0;0;89,0992102;0;89,0992102;0;0;0;100;0;100;100;100;100;0;0;0;0;0;0;0;0;0;0;0
128;1;0;0;0;29480,39704404;0;29480,39704404;0;0;0;100;0;100;100;100;100;0;0;0;0;0;0;0;0;0;0;0
129;0,999972648752497;0;0;2,73512475029283e-05;62308,00940607;1,7042484;62308,00940607;1,7042484;0;0;100;0;100;100;100;100;0;0;0;0;0;0;0;0;0;0;0
130;0,996910747256943;0,00252382467659986;7,06785083071647e-05;0,000494749558150153;62212,44687214;35,19656467;62059,7443041577;187,89913265226;435,45690930429;12,1947633950309;99,7405496815093;0,494854478524288;99,9929107497411;16,3901736274883;99,7474747474748;87,5;0,013893734680374;27,1316326935726;0,494940400136373;24,4995498067507;1,27393819964286e-05;9,99090307305189e-09;6,37468644975079e-06;5,02506657962161e-09;0,0191626547876393;6,37690031629416e-06;0,015625
131;0,986651655671638;0,0126818978878103;0,000166611610137901;0,000499834830413704;62052,05223048;41,38194819;61274,9351257701;818,499052899861;971,15051329125;28,6757001277806;98,7151490502052;1,10640749583667;99,9831162823326;3,79187502203465;98,7309644670051;75;0,0330864325310627;3,97508242259795;1,10666301728491;48,9990996135013;6,36774328145887e-05;5,5518857265488e-08;3,1866475835927e-05;2,84972993003412e-08;0,000411335406781531;3,18811964670454e-05;0,0625
132;0,949414159492495;0,0483924692945204;0,000146224747532294;0,00204714646545212;61709,56489353;135,64951294;58725,7655552145;3119,44885125546;1767,84448789782;17,4162675367787;95,1461305957947;2,02136171507473;99,9846007952776;4,05860836687157;95,1501154734411;93,3333333333333;0,0209699591627489;1,66992534906773;2,02570675653374;9,07866206910933;0,000212705997967701;2,06443775911975e-08;0,000106363321172646;1,14471925331716e-08;7,25935328640359e-05;0,000106821081651605;0,0021455938697318
133;0,998660445770325;0;0,000141005708386803;0,00119854852128783;61420,71985777;82,38674659;61429,3921468847;73,7144574752632;0;16,5184786745994;99,9858994291613;0,0189914443848053;99,985882508663;100;100;89,4736842105263;0,0190115495338707;0;0;14,1774360187107;0;1,87780203644606e-08;9,38901018223028e-09;9,40889991405691e-09;0;0;0,00523237919359803
134;1;0;0;0;61070,28352584;0;61070,28352584;0;0;0;100;0;100;100;100;100;0;0;0;0;0;0;0;0;0;0;0
135;0,992194641187745;0,00779210451194564;6,62715015465721e-06;6,62715015465721e-06;60543,6782804;0,80247473;60072,3105960995;472,170159030455;753,004997645501;1,11215279725097;99,22012683379;0,879445185105241;99,9993320760247;0,0849772814580009;99,2207792207792;50;0,00130911157868744;0,192029590607299;0,87945588247298;97,9981992270027;4,02671059392048e-05;8,7838238344746e-11;2,01335968887216e-05;4,46125601092311e-11;9,59931249819924e-07;2,01340866925283e-05;0,25
136;0,974885919816394;0,023835841560303;0,000132647404305025;0,00114559121899794;59849,75547889;76,60018236;58429,30943559;1497,04622566;1238,46848421152;6,31903153668341;97,6031511035392;1,46136178789488;99,9863953970966;4,58577067664089;97,6133651551313;89,622641509434;0,00764891882497294;2,69761951665784;1,46321310164863;5,83318461191257;0,000111182901072315;2,89447050656582e-09;5,55928977714109e-05;1,52301409235083e-09;0,000189437174686109;5,57338417713235e-05;0,000885758361728458
137;0,999954859572974;0;0;4,51404270261088e-05;47091,59813353;2,12583081;47091,59813353;2,12583081;5,80180435733948e-05;0;100;0;100;100;100;100;0;0;0;0;3,95097161788312e-19;0;0;0;0;0;0
138;0,996962351476072;0,00300289864902431;6,94997498075288e-06;2,77998999230115e-05;51577,61402178;1,79237792;51423,0847675689;156,321632131135;429,318994135833;0,993625365603168;99,6990151375995;0,588558896447305;99,999302889771;0,917276973411541;99,6996996996997;80;0,00136630761529537;1,83616195806291;0,588577773135155;39,1992796908011;1,80348005926239e-05;9,6604304466182e-11;9,01744859846441e-06;4,85960304860643e-11;8,7765895551842e-05;9,01802703604518e-06;0,04
139;1;0;0;0;10633,75344904;0;10633,75344904;0;0;0;100;0;100;100;100;100;0;0;0;0;0;0;0;0;0;0;0
142;1;0;0;0;16196,86327043;0;16196,86327043;0;0;0;100;0;100;100;100;100;0;0;0;0;0;0;0;0;0;0;0
143;1;0;0;0;136,82778196;0;136,82778196;0;0;0;100;0;100;100;100;100;0;0;0;0;0;0;0;0;0;0;0
146;1;0;0;0;44179,50714735;0;44179,50714735;0;0;0;100;0;100;100;100;100;0;0;0;0;0;0;0;0;0;0;0
147;0,997117864108168;0,0028489081831662;0;3,32277086655303e-05;62307,61458529;2,07040806;62130,1000138219;179,584979528063;492,036246950762;0;99,7151091816834;0,558375743426713;100;1,15288487124084;99,7150997150997;100;0;2,23356209153412;0,558394297589754;0;1,62325556722225e-05;0;8,11627783611118e-06;0;0,000129867319932297;8,11681723362622e-06;0
148;1;0;0;0;62247,61357443;0;62247,61357443;0;0;0;100;0;100;100;100;100;0;0;0;0;0;0;0;0;0;0;0
149;1;0;0;0;62093,25268006;0;62093,25268006;0;0;0;100;0;100;100;100;100;0;0;0;0;0;0;0;0;0;0;0
150;0,991292121290212;0,0082837781723416;0;0,000424100537446396;61818,95678448;26,22857635;61306,6449879235;538,540372906464;817,580342475378;0;99,1716221827658;0,934780292040831;100;4,87030827576515;99,171270718232;100;0;5,22821727779836;0,935176901067181;0;4,54938727798232e-05;0;2,27469363899116e-05;0;0,000711559258597758;2,27662426466306e-05;0
151;0,938015218572823;0,0591951351526539;0,000106272239029462;0,00268337403549391;61331,50588718;171,57183163;57697,3589590872;3805,71875972275;1921,61849494299;8,92675859409245;94,0698592608317;2,20932704564823;99,9886718042311;4,33652017590606;94,0639269406393;96,1904761904762;0,0109421528544115;1,55641494929294;2,21548362293139;3,67902555794267;0,00025412328438748;5,48400320972041e-09;0,000127064384195345;3,11680313854496e-09;6,30600927265653e-05;0,00012777353376888;0,000352346066631782
152;0,996921346083643;0,00276155497530095;6,3419788211201e-05;0,000253679152844804;61050,88952754;19,36531314;60886,1137240698;184,141116610177;467,4622169954;10,735384616182;99,7175025236488;0,541397540054085;99,9936388407945;8,41324892408293;99,7237569060773;80;0,0124668976872167;15,5671443406076;0,541426515066318;39,1992796908011;1,52523717632189e-05;8,04413907350719e-09;7,63020795114632e-06;4,04595090558452e-09;0,00630843630591162;7,63102469399604e-06;0,04
153;1;0;0;0;60544,12417997;0;60544,12417997;0;0;0;100;0;100;100;100;100;0;0;0;0;0;0;0;0;0;0;0
154;0,99988527613062;0;0;0,000114723869379648;59919,4525328;6,87498017;59919,4525328;6,87498017;0;0;100;0;100;100;100;100;0;0;0;0;0;0;0;0;0;0;0
155;1;0;0;0;59219,31886319;0;59219,31886319;0;0;0;100;0;100;100;100;100;0;0;0;0;0;0;0;0;0;0;0
156;1;0;0;0;58421,57431907;0;58421,57431907;0;0;0;100;0;100;100;100;100;0;0;0;0;0;0;0;0;0;0;0
157;1;0;0;0;49310,83901506;0;49310,83901506;0;0;0;100;0;100;100;100;100;0;0;0;0;0;0;0;0;0;0;0
158;1;0;0;0;12708,01157569;0;12708,01157569;0;0;0;100;0;100;100;100;100;0;0;0;0;0;0;0;0;0;0;0
159;1;0;0;0;18841,69570024;0;18841,69570024;0;0;0;100;0;100;100;100;100;0;0;0;0;0;0;0;0;0;0;0
160;1;0;0;0;54343,5950703;0;54343,5950703;0;0;0;100;0;100;100;100;100;0;0;0;0;0;0;0;0;0;0;0
161;0,999821767218574;0;0;0,00017823278142623;16467,98308416;2,93565766;16467,98308416;2,93565766;0;0;100;0;100;100;100;100;0;0;0;0;0;0;0;0;0;0;0
163;1;0;0;0;7960,17999548;0;7960,17999548;0;0;0;100;0;100;100;100;100;0;0;0;0;0;0;0;0;0;0;0
164;0,992883102934116;0,00677735906439669;0,000169769000743759;0,000169769000743759;51031,21800231;17,33292296;50693,9101044523;354,640820817695;676,943074896713;24,0217642174223;99,305287193486;0,938268205480498;99,9829043341456;2,44372925260486;99,3220338983051;50;0,0335015500445413;5,71946833701872;0,937996499936711;97,9981992270027;4,57763625684136e-05;5,76430272270691e-08;2,29170027978205e-05;2,92168654611298e-08;0,000851559774165398;2,29037320185184e-05;0,25
165;0,999825071651591;0;3,49856696817439e-05;0,000139942678726976;62298,78071483;10,89972949;62300,960660728;8,719783592;0;6,04239071382718;99,9965014330318;0,0068570652551233;99,9965009433645;100;100;80;0,00685778501933223;0;0;39,1992796908011;0;2,44799416616020e-09;1,2239970830801e-09;1,22425405468435e-09;0;0;0,04
166;1;0;0;0;62247,61825663;0;62247,61825663;0;0;0;100;0;100;100;100;100;0;0;0;0;0;0;0;0;0;0;0
167;1;0;0;0;62092,07407724;0;62092,07407724;0;0;0;100;0;100;100;100;100;0;0;0;0;0;0;0;0;0;0;0
168;0,997006313889171;0,00270191412978095;0,000145885990524066;0,000145885990524066;61827,14066509;18,04469225;61669,0626310391;176,122726300919;463,170111872185;11,1840106160146;99,7152199879695;0,529719800382327;99,9853697368825;5,12276088071942;99,7297297297297;50;0,0128221146633305;10,4352975490679;0,529719995821633;43,8261270288291;1,46006799294201e-05;8,51308889247514e-09;7,30459650915612e-06;4,27979661148331e-09;0,00283474169633052;7,30460189919642e-06;0,05
169;1;0;0;0;61503,07771535;0;61503,07771535;0;0;0;100;0;100;100;100;100;0;0;0;0;0;0;0;0;0;0;0
170;1;0;0;0;61070,25484068;0;61070,25484068;0;0;0;100;0;100;100;100;100;0;0;0;0;0;0;0;0;0;0;0
171;0,999978111398001;0;1,0944300999395e-05;1,0944300999395e-05;60543,12708351;1,32523342;60543,78970022;0,66261671;0;1,836646064934;99,9989055699;0,00214504357947799;99,9989055579222;100;100;50;0,00214504357922106;0;0;97,9981992270027;0;2,39555448730717e-10;1,19777724365358e-10;1,19777724336664e-10;0;0;0,25
172;0,999998556970807;0;0;1,44302919249113e-06;59926,24103753;0,08647544;59926,24103753;0,08647544;6,60567665236292e-05;0;100;0;100;100;100;100;0;0;0;0;3,16302856018563e-19;0;0;0;0;0;0
173;1;0;0;0;59219,31886319;0;59219,31886319;0;0;0;100;0;100;100;100;100;0;0;0;0;0;0;0;0;0;0;0
174;1;0;0;0;58421,57431907;0;58421,57431907;0;0;0;100;0;100;100;100;100;0;0;0;0;0;0;0;0;0;0;0
175;1;0;0;0;57534,30959;0;57534,30959;0;0;0;100;0;100;100;100;100;0;0;0;0;0;0;0;0;0;0;0
176;1;0;0;0;56490,97586632;0;56490,97586632;0;0;0;100;0;100;100;100;100;0;0;0;0;0;0;0;0;0;0;0
177;0,99999863049146;0;1,36950853994462e-06;0;55238,45539527;0,07564964;55238,53104491;0;0;0;99,999863049146;0;99,999863049146;100;100;0;0;0;0;0;0;0;0;0;0;0;0
178;0,994061147358765;0,00568034941347866;0;0,000258503227755847;54338,74801085;14,05037382;54030,0051244247;322,793260245284;604,262321703277;0;99,4319650586521;0,786119570639115;100;4,35274695925293;99,4318181818182;100;0;5,76168458356859;0,7863228376307;0;3,21744424806912e-05;0;1,60872212403454e-05;0;0,000864177147017639;1,60955416637233e-05;0
179;0,999660083731872;0;8,49790670318913e-05;0,000254937201095674;41038,69090524;13,95446201;41042,1795207425;10,4658465075;0;9,66977113320064;99,9915020932968;0,0166555910822322;99,9914999263118;100;100;75;0,0166584221962464;0;0;48,9990996135013;0;1,44428836672214e-08;7,22144183361068e-09;7,22389704071464e-09;0;0;0,0625
180;1;0;0;0;4682,21505383;0;4682,21505383;0;0;0;100;0;100;100;100;100;0;0;0;0;0;0;0;0;0;0;0
181;1;0;0;0;5888,5691487;0;5888,5691487;0;0;0;100;0;100;100;100;100;0;0;0;0;0;0;0;0;0;0;0
182;0,994708994708995;0,00529100529100529;0;0;31012,80431003;0;30848,7153983367;164,08891169328;454,822900498189;0;99,4708994708995;0;100;0;99,4708994708995;100;0;0;1,03701798123813;0;5,59894739788923e-05;0;0;0;0;2,79947369894463e-05;0
183;0,996875;0,003125;0;0;55968,15987081;0;55793,2593712137;174,900499596281;484,790542542313;0;99,6875;0;100;0;99,6875;100;0;0;0,612488745168771;0;1,95312500000002e-05;0;0;0;0;9,76562500000014e-06;0
184;1;0;0;0;62247,61495876;0;62247,61495876;0;0;0;100;0;100;100;100;100;0;0;0;0;0;0;0;0;0;0;0
185;0,994240908879118;0,00549304369546474;7,60135501191847e-05;0,000190033875297962;62076,88522587;16,51979054;61740,523379069;352,881637341044;667,586573230922;8,44488928274345;99,4430942754416;0,760294527755057;99,9923551989909;3,34385503156977;99,4505494505495;71,4285714285714;0,00967126726478113;4,76277831257031;0,760436016148487;36,147180339476;3,00904063707523e-05;4,81504983476816e-09;1,50476107102936e-05;2,43484089958112e-09;0,000590506323600034;1,50532118564086e-05;0,0340136054421769
186;0,966367251806132;0,031908352653976;0;0,00172439553989213;61738,53979902;106,6455618;59765,1618145764;2080,02354624356;1439,96375135809;0;96,8091647346024;1,64638221602482;100;5,12713243042838;96,8036529680365;100;0;2,50982155963108;1,64922613421493;0;0,000141122137592145;0;7,05610687960727e-05;0;0,000163979481629606;7,08050500795437e-05;0
187;0,999918100056667;0;0;8,18999433333962e-05;61498,04062023;5,03709858;61498,04062023;5,03709858;0;0;100;0;100;100;100;100;0;0;0;0;0;0;0;0;0;0;0
188;1;0;0;0;61070,25484069;0;61070,25484069;0;0;0;100;0;100;100;100;100;0;0;0;0;0;0;0;0;0;0;0
189;0,997201609197294;0,00277772035988104;2,06704428251975e-05;0;60543,20083629;1,25148064;60376,2767590514;168,175557878583;466,150297652134;0;99,7201609197294;0;99,9979271980533;0;99,7222222222222;0;0;0;0,544434440150014;0;1,5431460795395e-05;0;0;0;0;7,71604938271602e-06;0
190;0,999959009514817;0;0;4,09904851831335e-05;59923,87110373;2,45640924;59923,87110373;2,45640924;0;0;100;0;100;100;100;100;0;0;0;0;3,1362232334044e-19;0;0;0;0;0;0
191;1;0;0;0;59219,31886319;0;59219,31886319;0;0;0;100;0;100;100;100;100;0;0;0;0;0;0;0;0;0;0;0
192;0,999988835416238;0;2,79114594052925e-06;8,37343782158775e-06;58420,92206651;0,65225256;58421,08512965;0,48918942;0;0,451979658672934;99,9997208854059;0,00054705455190325;99,9997208830688;100;100;75;0,000547057605734219;0;0;48,9990996135013;3,05846563257619e-19;1,55809913226658e-11;7,7904956613329e-12;7,79058263958118e-12;0;0;0,0625
193;0,999997129176062;0;1,43541196922595e-06;1,43541196922595e-06;57534,14328591;0,16517087;57534,225871345;0,082585435;0;0,228910940404163;99,9998564588031;0,000281335576266058;99,999856458597;100;100;50;0,000281335576265479;0;0;97,9981992270027;0;4,12081504279426e-12;2,06040752139713e-12;2,06040752138864e-12;0;0;0,25
194;0,999670678933386;0;0;0,000329321066613904;56541,80753943;18,62654248;56541,80753943;18,62654248;6,25249317450141e-05;0;100;0;100;100;100;100;0;0;0;0;3,18115479835288e-19;0;0;0;0;0;0
195;0,996896257728;0,00305796398076074;2,28891456196096e-05;2,28891456196096e-05;55497,17875289;2,54068232;55328,7329510748;170,986484135199;470,420503206408;2,03293190266625;99,691914687362;0,599355523396946;99,9977040118357;0,742948289992058;99,6941896024465;50;0,00259808446915163;1,66892729574907;0,599377365302771;56,5792867038086;1,870228741526e-05;3,4927532479713e-10;9,35131834529251e-06;1,7571561284177e-10;7,25067857942841e-05;9,35199992518406e-06;0,0833333333333333
196;0,999851974890418;0;0;0,00014802510958195;39613,14669684;5,86460849;39613,14669684;5,86460849;0;0;100;0;100;100;100;100;0;0;0;0;0;0;0;0;0;0;0
197;1;0;0;0;5904,44786128;0;5904,44786128;0;0;0;100;0;100;100;100;100;0;0;0;0;0;0;0;0;0;0;0
201;0,999483210617326;0;0;0,000516789382673808;26337,83786899;13,61815269;26337,83786899;13,61815269;4,32941561446886e-05;0;100;0;100;100;100;100;0;0;0;0;7,02672800395669e-19;0;0;0;0;0;0
202;0,99967084264874;0;2,74297792716607e-05;0,000301727571988267;62227,12763612;20,4892607;62228,8350745117;18,7818223083333;0;4,73269079370459;99,9972570220728;0,00537613794763382;99,997256194191;100;100;91,6666666666667;0,0053776130109654;0;0;16,3330332045004;2,96851076102983e-19;1,50478558178405e-09;7,52392790892024e-10;7,52805719012731e-10;0;0;0,00694444444444444
203;0,999916578779519;0;0;8,34212204810323e-05;62088,22510528;5,17990763;62088,22510528;5,17990763;0;0;100;0;100;100;100;100;0;0;0;0;3,10118163303116e-19;0;0;0;0;0;0
204;1;0;0;0;61845,18535734;0;61845,18535734;0;0;0;100;0;100;100;100;100;0;0;0;0;0;0;0;0;0;0;0
205;1;0;0;0;61502,5604395;0;61502,5604395;0;0;0;100;0;100;100;100;100;0;0;0;0;0;0;0;0;0;0;0
206;0,999979015142586;0;0;2,09848574140669e-05;61068,97328664;1,28155059;61068,97328664;1,28155059;0;0;100;0;100;100;100;100;0;0;0;0;0;0;0;0;0;0;0
207;0,996731524387398;0,00282360205208895;2,96582373675105e-05;0,000415215323145147;60517,51768744;26,93462607;60348,359889383;196,092424127028;473,850051995328;4,9771735037122;99,7146739710544;0,553446360521707;99,9970245392894;12,8199671373918;99,7175141242938;93,3333333333333;0,00583164570703254;21,9612526742681;0,553662142525442;13,0664265636004;1,59454570971221e-05;1,75922208749519e-09;7,97360815960475e-06;8,852910636227e-10;0,0125550381127319;7,97982699735078e-06;0,00444444444444445
208;0,978063808128161;0,0217952937744437;0;0,000140898097395533;59917,88400404;8,44350553;58611,7720911454;1314,5554184246;1267,66694944621;0;97,8204706225556;1,49579647792755;100;0,642308830168522;97,8201634877384;100;0;0,437980890904418;1,49600726250453;0;0,000116487366274887;0;5,82436831374437e-05;0;4,9936045068099e-06;5,82600994551828e-05;0
209;0,997237895890584;0,0027548008173773;0;7,30329203885706e-06;59218,8863672;0,43249598;59055,7489391912;163,569923988815;452,185570743971;0;99,7245199182623;0;100;0,264410454839835;99,7245179063361;100;0;0;0,53993498196696;0;1,51778550868451e-05;0;0;0;0;7,58903839294531e-06;0
210;0,991890910896001;0,00789303112118834;0;0,000216057982810637;58408,95187157;12,6224475;57947,8285673208;473,745751749237;735,987778621156;0;99,2106968878812;0,89080439067108;100;2,66439275780172;99,2105263157895;100;0;2,92690428811732;0,89099689766348;0;4,13141204671555e-05;0;2,06570602335779e-05;0;0,000223008214109961;2,06659893728211e-05;0
211;0,997044207554549;0,00261006337056165;3,14299158990287e-05;0,000314299158990287;57514,41845399;19,89128368;57366,0585581095;168,251179560477;416,237349820534;5,01225565878842;99,7358506713539;0,511600108736084;99,9968477902059;10,7476127126565;99,7389033942559;90,9090909090909;0,00617804408638344;18,8947272671182;0,511739943744141;17,8178544049096;1,36248615966952e-05;1,97567922684003e-09;6,81341863796108e-06;9,93586825080182e-10;0,00929362346865589;6,81714375311036e-06;0,00826446280991735
212;0,986198222565944;0,0133270030076479;0;0,00047477442640778;35072,68557025;16,65952369;34605,0497626467;484,295331293333;745,011021986748;0;98,6672996992352;1,50131712146583;100;3,43995133000972;98,6666666666667;100;0;3,74187879309625;1,5020302470148;0;0,00011734880962744;0;5,86744048137202e-05;0;0,00036448801238727;5,87301587301586e-05;0
213;0,944610799326463;0,055025871805425;0;0,000363328868111788;15454,40843773;5,61707357;14603,7070558366;856,318455463394;940,094120513384;0;94,4974128194575;4,29977898214167;100;0,65595614974342;94,4954128440367;100;0;0,509208732311758;4,30134178378333;0;0,000962556162032556;1,32348898008484e-23;0,000481278081016278;0;6,74987147241358e-06;0,000481627996146976;0
214;0,999911497367031;0;0;8,85026329694538e-05;1068,56673419;0,09457934;1068,56673419;0,09457934;0;0;100;0;100;100;100;100;0;0;0;0;1,38777878078145e-17;0;0;0;0;0;0
219;1;0;0;0;8785,2221382;0;8785,2221382;0;0;0;100;0;100;100;100;100;0;0;0;0;0;0;0;0;0;0;0
220;0,997172783313277;0,00273198022825555;0;9,52364584672247e-05;61843,64402631;5,89033061;61674,6723213201;174,862035599918;468,35706430483;0;99,7268019771744;0,53545828538564;100;3,36855886973488;99,7267759562842;100;0;6,37985324959173;0,535509285393458;0;1,49274319351588e-05;0;7,46371596757928e-06;0;0,00105955912548274;7,46513780644391e-06;0
221;1;0;0;0;62093,40482255;0;62093,40482255;0;0;0;100;0;100;100;100;100;0;0;0;0;0;0;0;0;0;0;0
222;1;0;0;0;61845,21440649;0;61845,21440649;0;0;0;100;0;100;100;100;100;0;0;0;0;0;0;0;0;0;0;0
223;1;0;0;0;61503,10660424;0;61503,10660424;0;0;0;100;0;100;100;100;100;0;0;0;0;0;0;0;0;0;0;0
224;0,999991955636168;0;0;8,04436383191399e-06;61069,79225426;0,49127158;61069,79225426;0,49127158;0;0;100;0;100;100;100;100;0;0;0;0;0;0;0;0;0;0;0
225;1;0;0;0;60544,48075511;0;60544,48075511;0;0;0;100;0;100;100;100;100;0;0;0;0;0;0;0;0;0;0;0
226;0,999698833884176;0;4,30237308320472e-05;0,000258142384992283;59908,30787346;18,04778777;59910,8861288557;15,4695323742857;0;7,14642802614124;99,9956976269168;0,00843249629113579;99,9956965160052;100;100;85,7142857142857;0,00843431065307529;0;0;27,9994854934293;0;3,70208282941689e-09;1,85104141470845e-09;1,8518380519754e-09;0;0;0,0204081632653061
227;0,994388223176721;0,00555524147026101;0;5,65353530181919e-05;59215,99869226;3,34798667;58887,0209217474;332,325757182556;643,885927012608;0;99,4444758529739;0,768830003764959;100;1,00744122224654;99,4444444444444;100;0;1,38022423749949;0,768873472298142;0;3,07747448185541e-05;1,03397576569128e-25;1,5387372409277e-05;0;4,95910286872947e-05;1,5389112417896e-05;0
228;0,974095137124602;0,0251055447712526;2,57844549724164e-05;0,000773533649172493;58374,90431615;46,69744396;56909,7045467133;1511,89721339673;1270,94514921638;4,17536555945282;97,4868670773775;1,53829877333773;99,9973530539791;2,98903089439993;97,4874371859297;96,7741935483871;0,00518794994092351;1,78679501662464;1,53952103914356;6,32246446625825;0,000123199944969981;1,32967623644914e-09;6,16006373231086e-05;7,00640716087773e-10;8,31100001446266e-05;6,16985666278051e-05;0,00104058272632675
229;0,990524172879178;0,0090873777328365;0;0,000388449387985032;52393,85694728;20,3602706;51917,5491568502;496,668061029818;759,91684868108;0;99,0912622267164;1,02518435905784;100;4,09937183353081;99,0909090909091;100;0;4,43508712444057;1,02558274604787;0;5,47189502277111e-05;0;2,73594751138559e-05;0;0,000512044999556296;2,73807430480546e-05;0
230;1;0;0;0;1094,15657834;0;1094,15657834;0;0;0;100;0;100;100;100;100;0;0;0;0;0;0;0;0;0;0;0
238;0,999718751889911;0;0,000112499244035643;0,000168748866053464;35554,28164194;10,00238767;35558,282597008;6,001432602;4,96301078015491e-05;6,79113551644284;99,9887500755964;0,0135024733567965;99,988748176864;100;100;60;0,013503232737588;0;0;48,0091167635531;5,06951152796875e-19;9,49205993144329e-09;4,74602996572164e-09;4,74656381537160e-09;0;0;0,06
239;0,997133760837693;0,00273187331736354;0;0,000134365844943844;62085,06178008;8,34323283;61915,430463741;177,974549169016;470,185380087428;0;99,7268126682636;0,53543733123585;100;4,68787973839828;99,7267759562842;100;0;8,75734952369407;0,535509285393458;0;1,49262636442459e-05;0;7,46313182212289e-06;0;0,00199640746549217;7,46513780644391e-06;0
240;1;0;0;0;61845,18535734;0;61845,18535734;0;0;0;100;0;100;100;100;100;0;0;0;0;0;0;0;0;0;0;0
241;1;0;0;0;61503,07771535;0;61503,07771535;0;0;0;100;0;100;100;100;100;0;0;0;0;0;0;0;0;0;0;0
242;1;0;0;0;61070,25484069;0;61070,25484069;0;0;0;100;0;100;100;100;100;0;0;0;0;0;0;0;0;0;0;0
243;0,999979832090914;0;2,01679090861733e-05;0;60543,23126192;1,22105501;60544,45231693;0;6,44812782857594e-05;0;99,9979832090914;0;99,9979832090914;100;100;0;0;0;0;0;2,95272081017329e-19;0;0;0;0;0;0
244;0,999953735822049;0;0;4,62641779508339e-05;59923,55507069;2,77244228;59923,55507069;2,77244228;0;0;100;0;100;100;100;100;0;0;0;0;2,96059473233375e-19;0;0;0;0;0;0
245;0,994563900488533;0,00527620106359964;5,32994826225301e-05;0,00010659896524506;59209,84978602;9,46907717;58900,5531119051;318,765751284943;611,586106886208;8,74882017531015;99,4670499453778;0,730337561755075;99,9946412064235;1,98036272337502;99,4722955145119;66,6666666666667;0,0105025532723551;3,29195009553787;0,730379632817145;65,3321328180018;2,77646513734149e-05;5,68166969565878e-09;1,38851665215552e-05;2,87139939245076e-09;0,000282104688279689;1,38867662764042e-05;0,111111111111111
246;0,935271380467367;0,059953293619703;0,000401662927255833;0,00437366298567463;58142,59226134;278,98205772;54663,49224302;3758,08207604002;1720,01999801551;14,7061867017637;93,9645043453041;2,0819059959346;99,9570722989092;6,79911380310661;93,9759036144578;91,588785046729;0,0190391870597956;2,21547594708551;2,09181902125464;3,72742405988321;0,00022564426433507;1,64951950953668e-08;0,000112830379765083;9,43627566551365e-09;0,000127772648392663;0,000113907424807226;0,000361677445228626
247;0,994826693634594;0,00507564639609487;0;9,7659969311151e-05;32405,19097653;3,16499905;32240,6976213192;167,658354260812;455,943940133547;0;99,4924353603905;0,994808413460637;100;1,88776697943514;99,492385786802;100;0;3,63010875666142;0,994905575908647;0;5,15243726763812e-05;0;2,57621863381903e-05;0;0,000343038678800905;2,57672189440589e-05;0
256;1;0;0;0;25233,03927223;0;25233,03927223;0;0;0;100;0;100;100;100;100;0;0;0;0;0;0;0;0;0;0;0
257;0,999957891100358;0;0;4,21088996424621e-05;62090,79032445;2,61468496;62090,79032445;2,61468496;0;0;100;0;100;100;100;100;0;0;0;0;0;0;0;0;0;0;0
258;0,999987247706422;0;1,27522935777029e-05;0;61844,39668591;0,78866796;61845,18535387;0;0;0;99,9987247706422;0;99,9987247706422;100;100;0;0;0;0;0;0;0;0;0;0;0;0
259;0,999996367809575;0;0;3,63219042502953e-06;61502,85432789;0,22339089;61502,85432789;0,22339089;0;0;100;0;100;100;100;100;0;0;0;0;0;0;0;0;0;0;0
260;0,999855482331251;0;2,40862781248931e-05;0,000120431390624465;61061,42911325;8,82573086;61062,9000683933;7,35477571666667;0;4,07720471718499;99,9975913721875;0,00472082376464054;99,9975910820782;100;100;83,3333333333333;0,00472127863402224;0;0;32,6660664090009;0;1,16029758781941e-09;5,80148793909704e-10;5,80260598395459e-10;0;0;0,0277777777777778
261;0,994524095395325;0,00536131587814192;4,58354906130529e-05;6,87532359195794e-05;60537,51460862;6,93771169;60215,6917597377;328,760560572284;635,344575912076;4,71036934532249;99,4592848631245;0,742047846605098;99,9953914260637;1,26615765794838;99,4638069705094;60;0,00553119106020425;1,99856393984;0,742112491604587;48,0091167635531;2,86664399131058e-05;1,57566914980445e-09;1,43340077911278e-05;7,96418131041042e-10;0,000103977629543014;1,43365053720934e-05;0,06
262;0,97158614174843;0,0283486672658693;1,86259959145136e-05;4,65649897862841e-05;59922,42085662;3,90665636;58224,7055250205;1701,62198795955;1401,30363607233;1,35674610629656;97,1632706738216;1,65348321701012;99,9980829657765;0,163988761800001;97,1649484536082;71,4285714285714;0,00164798432290768;0,110846721797782;1,65359024118707;24,557173288483;0,000142341975465406;1,33433739925953e-10;7,11710544495728e-05;7,06984626236014e-11;3,19852334928706e-07;7,11802680538701e-05;0,0156985871271586
263;0,99441110866867;0,00558657926218354;0;2,31206914615597e-06;59219,18194405;0,13691916;58888,3485253682;330,970337841844;647,512795163501;0;99,4413420737816;0,773161017644882;100;0,041369012369147;99,4413407821229;100;0;0,0572294321111515;0,773162805250749;0;3,11224452536326e-05;0;1,55612226268159e-05;0;8,52594822081964e-08;1,55612945843109e-05;0
264;0,990255235652064;0,00974021543264325;0;4,54891529292181e-06;50047,8948744;0,22766467;49560,4153788701;487,70716019987;777,570089608467;0;99,0259784567357;1,09859282489719;100;0,0466806084837261;99,025974025974;100;0;0,0526261895218818;1,09859782232563;0;6,28358262446514e-05;0;3,14179131223257e-05;0;7,20954187683468e-08;3,1418198959127e-05;0
265;0,999758658751297;0;0;0,00024134124870312;12770,24440074;3,08273072;12770,24440074;3,08273072;0;0;100;0;100;100;100;100;0;0;0;0;0;0;0;0;0;0;0
274;0,999904434486947;0;9,55655130527472e-05;0;10984,5508859;1,04984457;10985,60073047;0;0;0;99,9904434486947;0;99,9904434486947;100;100;0;0;0;0;0;0;0;0;0;0;0;0
275;0,988716263110794;0,0112674218018324;4,07877184332073e-06;1,22363155299622e-05;60402,29569;0,98548481;59721,9528139912;681,328360818768;939,225994230743;0,447058791146933;98,8728499426324;1,09949845754108;99,999587469614;0,108481262487267;98,8732394366197;75;0,000529334451007271;0,115454396931723;1,09951627169228;32,0774404233645;6,29394529875752e-05;1,42597540713137e-11;3,14697336236647e-05;7,29397278746672e-12;3,46996242652921e-07;3,14707533815929e-05;0,0267857142857143
276;0,99997777946824;0;0;2,2220531759582e-05;61843,78207942;1,37423226;61843,78207942;1,37423226;0;0;100;0;100;100;100;100;0;0;0;0;3,16302856018563e-19;0;0;0;0;0;0
277;0,999722932837247;0;0;0,000277067162753522;61486,00835469;17,04047524;61486,00835469;17,04047524;0;0;100;0;100;100;100;100;0;0;0;0;0;0;0;0;0;0;0
278;0,997209820080064;0,00270980929369583;0;8,03706262402269e-05;60894,86745022;4,89455201;60729,8407091625;169,921293067507;457,422383103128;0;99,7290190706304;0,531112862061575;100;2,88048185229822;99,7289972899729;100;0;5,4830190331439;0,53115555136587;0;1,46861328164007e-05;0;7,34306640820031e-06;0;0,000782606273321602;7,3442468842033e-06;0
279;0,98700364964645;0,012930178816329;1,10285895369089e-05;5,51429476845445e-05;36532,840789;2,41759421;36060,8362973726;474,422085837356;752,715617141361;1,11685102045488;98,7058792594134;1,45681439416864;99,9988826316589;0,424655997646227;98,7068965517241;83,3333333333333;0,00219003933363978;0,504429414540149;1,45690919646724;32,6660664090009;0,000110494663916;2,43259574347233e-10;5,52474535877873e-05;1,24855491279813e-10;6,62376055894674e-06;5,52546442855601e-05;0,0277777777777778
280;0,994990467126725;0,00497495233563363;0;3,4580537640997e-05;32276,15787772;1,11616549;32115,5799778309;161,694065379154;445,091051124839;0;99,5025047664366;0,975072740264531;100;0,690294654527189;99,5024875621891;100;0;1,34361330169254;0,975106459970174;0;4,95003014836533e-05;0;2,47501507418264e-05;0;4,69950815237149e-05;2,47518625776589e-05;0
281;0,999984841727273;0;3,7895681817276e-06;1,13687045451828e-05;18360,68107212;0,27832043;18360,7506522275;0,2087403225;0;0,192862674165823;99,9996210431818;0,000742741715314503;99,9996210388735;100;100;75;0,000742747344687246;0;0;48,9990996135013;0;2,87216540079245e-11;1,43608270039622e-11;1,43610446913569e-11;0;0;0,0625
282;1;0;0;0;1845,16092701;0;1845,16092701;0;0;0;100;0;100;100;100;100;0;0;0;0;0;0;0;0;0;0;0
293;0,999919470651451;0;0;8,05293485490951e-05;30412,68472566;2,44931093;30412,68472566;2,44931093;4,64320005344857e-05;0;100;0;100;100;100;100;0;0;0;0;6,06679248429047e-19;0;0;0;0;0;0
294;0,999988795022418;0;0;1,12049775821814e-05;61844,46333462;0,69297359;61844,46333462;0,69297359;0;0;100;0;100;100;100;100;0;0;0;0;0;0;0;0;0;0;0
295;0,99437069175984;0,00561791351276746;1,62781819892351e-06;9,76690919354109e-06;58119,79092095;0,66226672;57793,3698511502;327,083336519751;639,056985562538;0,262239422853576;99,4380458669034;0,777491470417463;99,9998362969115;0,173551240675066;99,438202247191;85,7142857142857;0,000320854185606556;0,246358029867203;0,777500264360063;27,9994854934293;3,14720481461267e-05;5,29958417749319e-12;1,57360267228553e-05;2,67990399549942e-12;1,57992787930193e-06;1,57363826946019e-05;0,0204081632653061
296;0,99943508897138;0;0;0,00056491102862007;16052,86401441;9,07356568;16052,86401441;9,07356568;0;0;100;0;100;100;100;100;0;0;0;0;0;0;0;0;0;0;0
311;1;0;0;0;4812,54649281;0;4812,54649281;0;0;0;100;0;100;100;100;100;0;0;0;0;0;0;0;0;0;0;0
312;0,9997340600907;0;0;0,000265939909299645;22814,30920524;6,06884927;22814,30920524;6,06884927;3,86084980152925e-05;0;100;0;100;100;100;100;0;0;0;0;7,45116123909501e-19;0;0;0;0;0;0
313;0,982697908048352;0,0172403141762869;0;6,17777753606671e-05;8750,63302371;0,54062804;8599,76004054259;151,413611207414;294,417129501423;0;98,2759685823713;2,37893061036793;100;0,357053791722477;98,2758620689655;100;0;0,490926875808017;2,37907758448851;0;0,000294643837828409;0;0,000147321918914204;0;6,27389772063393e-06;0,000147340123041928;0
