"id";"p0r0";"p0r1";"p1r0";"p1r1";"PopNoMinekm";"PopMinekm";"EstNoMinekm";"EstMinekm";"CI_NoMine";"CI_Mine";"OA";"CI_OA";"PA_NoMine";"PA_Mine";"UA_NoMine";"UA_Mine";"CI_PANoMine";"CI_PAMine";"CI_UANoMine";"CI_UAMine";"varAreaNoMine";"varAreaMine";"varOA";"varPANoMine";"varPAMine";"varUANoMine";"varUAMine"
5;1;0;0;0;17446,47722887;0;17446,47722887;0;0;0;100;0;100;100;100;100;0;0;0;0;0;0;0;0;0;0;0
6;1;0;0;0;50697,7407883;0;50697,7407883;0;0;0;100;0;100;100;100;100;0;0;0;0;0;0;0;0;0;0;0
7;1;0;0;0;24829,71456314;0;24829,71456314;0;0;0;100;0;100;100;100;100;0;0;0;0;0;0;0;0;0;0;0
20;1;0;0;0;2853,80349717;0;2853,80349717;0;0;0;100;0;100;100;100;100;0;0;0;0;0;0;0;0;0;0;0
21;1;0;0;0;7504,57408914;0;7504,57408914;0;0;0;100;0;100;100;100;100;0;0;0;0;0;0;0;0;0;0;0
22;1;0;0;0;4470,99155889;0;4470,99155889;0;0;0;100;0;100;100;100;100;0;0;0;0;0;0;0;0;0;0;0
23;1;0;0;0;48633,88140528;0;48633,88140528;0;0;0;100;0;100;100;100;100;0;0;0;0;0;0;0;0;0;0;0
24;1;0;0;0;61845,18535723;0;61845,18535723;0;0;0;100;0;100;100;100;100;0;0;0;0;0;0;0;0;0;0;0
25;1;0;0;0;52596,2498221;0;52596,2498221;0;0;0;100;0;100;100;100;100;0;0;0;0;0;0;0;0;0;0;0
26;1;0;0;0;6874,67030099;0;6874,67030099;0;0;0;100;0;100;100;100;100;0;0;0;0;0;0;0;0;0;0;0
38;0,99999531590654;0;4,68409345968991e-06;0;28619,69198816;0,13405794;28619,8260461;0;0;0;99,999531590654;0;99,999531590654;100;100;0;0;0;0;0;0;0;0;0;0;0;0
39;1;0;0;0;61408,00481445;0;61408,00481445;0;0;0;100;0;100;100;100;100;0;0;0;0;0;0;0;0;0;0;0
40;0,999112339835998;0;0;0,000887660164002191;62137,58088627;55,20605946;62137,58088627;55,20605946;0;0;100;0;100;100;100;100;0;0;0;0;0;0;0;0;0;0;0
41;1;0;0;0;62055,0965638;0;62055,0965638;0;0;0;100;0;100;100;100;100;0;0;0;0;0;0;0;0;0;0;0
42;1;0;0;0;61845,21440637;0;61845,21440637;0;0;0;100;0;100;100;100;100;0;0;0;0;0;0;0;0;0;0;0
43;1;0;0;0;61190,66082012;0;61190,66082012;0;0;0;100;0;100;100;100;100;0;0;0;0;0;0;0;0;0;0;0
44;1;0;0;0;9670,63442719;0;9670,63442719;0;0;0;100;0;100;100;100;100;0;0;0;0;0;0;0;0;0;0;0
56;1;0;0;0;6625,45760333;0;6625,45760333;0;0;0;100;0;100;100;100;100;0;0;0;0;0;0;0;0;0;0;0
57;1;0;0;0;62086,55507164;0;62086,55507164;0;0;0;100;0;100;100;100;100;0;0;0;0;0;0;0;0;0;0;0
58;1;0;0;0;62247,61430703;0;62247,61430703;0;0;0;100;0;100;100;100;100;0;0;0;0;0;0;0;0;0;0;0
59;1;0;0;0;62093,40500955;0;62093,40500955;0;0;0;100;0;100;100;100;100;0;0;0;0;0;0;0;0;0;0;0
60;1;0;0;0;61845,18535376;0;61845,18535376;0;0;0;100;0;100;100;100;100;0;0;0;0;0;0;0;0;0;0;0
61;0,999431756197035;0;0;0,000568243802964677;48360,02968317;27,49591156;48360,02968317;27,49591156;0;0;100;0;100;100;100;100;0;0;0;0;0;0;0;0;0;0;0
62;1;0;0;0;5218,17831937;0;5218,17831937;0;0;0;100;0;100;100;100;100;0;0;0;0;0;0;0;0;0;0;0
73;0,999191028062757;0;0;0,000808971937243226;17167,78312809;13,89949908;17167,78312809;13,89949908;0;0;100;0;100;100;100;100;0;0;0;0;0;0;0;0;0;0;0
74;0,999569748163925;0;0;0,000430251836075222;40143,23893952;17,27913664;40143,23893952;17,27913664;0;0;100;0;100;100;100;100;0;0;0;0;0;0;0;0;0;0;0
75;1;0;0;0;62309,68158337;0;62309,68158337;0;0;0;100;0;100;100;100;100;0;0;0;0;0;0;0;0;0;0;0
76;1;0;0;0;62247,61708269;0;62247,61708269;0;0;0;100;0;100;100;100;100;0;0;0;0;0;0;0;0;0;0;0
77;1;0;0;0;62093,40501301;0;62093,40501301;0;0;0;100;0;100;100;100;100;0;0;0;0;0;0;0;0;0;0;0
78;1;0;0;0;61845,18535729;0;61845,18535729;0;0;0;100;0;100;100;100;100;0;0;0;0;0;0;0;0;0;0;0
79;0,998490035073378;0;5,03321642207421e-05;0,00145963276240152;61410,21022545;92,86749023;61413,3058084577;89,7719072223333;0;8,58036065783422;99,9949667835779;0,00986492291366099;99,9949594261912;100;100;96,6666666666667;0,00987884515097741;0;0;6,53321328180018;0;5,06665351028749e-09;2,53332675514375e-09;2,54048230300581e-09;0;0;0,00111111111111111
80;0,999756305083737;0;0;0,000243694916262833;53934,18890182;13,14669143;53934,18890182;13,14669143;0;0;100;0;100;100;100;100;0;0;0;0;0;0;0;0;0;0;0
81;1;0;0;0;621,62807657;0;621,62807657;0;0;0;100;0;100;100;100;100;0;0;0;0;0;0;0;0;0;0;0
91;0,995471128017338;0,00452486876371517;0;4,00321894652081e-06;37876,61754741;0,151629;37705,2301376932;171,539038716787;475,05293314376;0;99,5475131236285;0,8868579811652;100;0,0883932900255673;99,5475113122172;100;0;0,173094525614196;0,886861531466086;0;4,09488746576903e-05;0;2,04744373288452e-05;0;7,79956683023601e-07;2,04746012571404e-05;0
92;0,999984740834723;0;3,81479131920648e-06;1,14443739576194e-05;62276,92680739;0,95030842;62277,164384495;0,712731315;0;0,65851803679485;99,9996185208681;0,000747685359418074;99,9996185165022;100;100;75;0,000747691063977954;0;0;48,9990996135013;0;2,91052656181863e-11;1,45526328090931e-11;1,45528548722402e-11;0;0;0,0625
93;1;0;0;0;62309,68154131;0;62309,68154131;0;0;0;100;0;100;100;100;100;0;0;0;0;0;0;0;0;0;0;0
94;1;0;0;0;62247,61712475;0;62247,61712475;0;0;0;100;0;100;100;100;100;0;0;0;0;0;0;0;0;0;0;0
95;1;0;0;0;62093,4050095;0;62093,4050095;0;0;0;100;0;100;100;100;100;0;0;0;0;0;0;0;0;0;0;0
96;0,999996420610129;0;8,9484746764587e-07;2,68454240293761e-06;61844,96398584;0,22136803;61845,0193278475;0,1660260225;0;0,153397399682877;99,9999105152532;0,000175386880824278;99,999910515013;100;100;75;0,000175387194713711;0;0;48,9990996135013;0;1,60150398070445e-12;8,00751990352226e-13;8,00754856562201e-13;0;0;0,0625
97;0,99944206637452;0;0;0,00055793362547998;61468,76308398;34,31463513;61468,76308398;34,31463513;0;0;100;0;100;100;100;100;0;0;0;0;3,1720657846433e-19;0;0;0;0;0;0
98;0,999981270905895;0;0;1,87290941051303e-05;61069,11105358;1,14379055;61069,11105358;1,14379055;6,71267445249908e-05;0;100;0;100;100;100;100;0;0;0;0;3,14510771848486e-19;0;0;0;0;0;0
99;1;0;0;0;18585,1898172;0;18585,1898172;0;0;0;100;0;100;100;100;100;0;0;0;0;0;0;0;0;0;0;0
100;1;0;0;0;51,74347486;0;51,74347486;0;0;0;100;0;100;100;100;100;0;0;0;0;0;0;0;0;0;0;0
109;1;0;0;0;17132,05699585;0;17132,05699585;0;0;0;100;0;100;100;100;100;0;0;0;0;0;0;0;0;0;0;0
110;0,999977635080215;0;2,23649197846496e-05;0;31206,93152435;0,69795613;31207,62948048;0;0;0;99,9977635080215;0;99,9977635080215;100;100;0;0;0;0;0;0;0;0;0;0;0;0
111;0,998795470187009;0;0;0,00120452981299142;62234,6289289;75,05387057;62234,6289289;75,05387057;0;0;100;0;100;100;100;100;0;0;0;0;0;0;0;0;0;0;0
112;0,99974490955868;0;0,000159431525824935;9,56589154949612e-05;62231,73704572;15,87877179;62241,6612780888;5,95453942125;0;5,50161263743419;99,9840568474175;0,00624960097234281;99,9840553221669;100;100;37,5;0,00624920228551526;0;0;24,4995498067507;3,18115479835288e-19;2,03347291414936e-09;1,01673645707468e-09;1,01660673791194e-09;0;0;0,015625
113;0,999997356803352;0;1,32159832405463e-06;1,32159832405463e-06;62093,2408879;0,16412508;62093,32295044;0,08206254;0;0,227461576043697;99,9998678401676;0,000259028511717558;99,9998678399929;100;100;50;0,000259028511717105;0;0;97,9981992270027;0;3,49324426028804e-12;1,74662213014402e-12;1,74662213013792e-12;0;0;0,25
114;1;0;0;0;61841,02997829;0;61841,02997829;0;0;0;100;0;100;100;100;100;0;0;0;0;0;0;0;0;0;0;0
115;0,999585355018201;0;0;0,000414644981799125;61477,57577312;25,50194254;61477,57577312;25,50194254;0;0;100;0;100;100;100;100;0;0;0;0;3,19029604777344e-19;0;0;0;0;0;0
116;0,999572668066834;0;7,76967151210415e-05;0,000349635218044687;61044,15757064;26,09727006;61048,9025288327;21,3523118672727;0;8,82270454903558;99,9922303284879;0,0102154383198525;99,992227610987;100;100;81,8181818181818;0,0102182169847704;0;0;23,9051601975431;0;5,43310158654025e-09;2,71655079327012e-09;2,71802883283242e-09;0;0;0,0148760330578512
117;0,999588041232182;0;0;0,000411958767818284;58961,70605138;24,29980229;58961,70605138;24,29980229;0;0;100;0;100;100;100;100;0;0;0;0;0;0;0;0;0;0;0
118;0,999707648808528;0;0;0,000292351191471629;33394,03439456;9,76564074;33394,03439456;9,76564074;0;0;100;0;100;100;100;100;0;0;0;0;0;0;0;0;0;0;0
119;1;0;0;0;89,0992102;0;89,0992102;0;0;0;100;0;100;100;100;100;0;0;0;0;0;0;0;0;0;0;0
128;1;0;0;0;29480,39704404;0;29480,39704404;0;0;0;100;0;100;100;100;100;0;0;0;0;0;0;0;0;0;0;0
129;0,997123423486928;0,00284892406710551;0;2,76524459662016e-05;62307,99063849;1,72301599;62130,4749956453;179,238658834701;492,039216600728;0;99,7151075932894;0;100;0,961297077986405;99,7150997150997;100;0;0;0,558394297589754;0;1,62327366802662e-05;0;0;0;0;8,11681723362622e-06;0
130;0,997259454451587;0;0,00015225253046741;0,00258829301794596;62077,0509347;170,59250212;62086,5282959289;161,115140891111;0;14,8777428767392;99,9847747469532;0,0169004837710361;99,9847352372745;100;100;94,4444444444445;0,0169417541763353;0;0;6,16683192177576;3,19029604777344e-19;1,48707230782416e-08;7,43536153912077e-09;7,47171967652415e-09;0;0;0,000989983694386209
131;0,995049159546959;0;0,000198033618121641;0,00475280683491939;61786,01949287;307,4146858;61798,316080302;295,118098368;0;23,8536735700655;99,9801966381878;0,0271640545586021;99,9801020671566;100;100;96;0,0272883457092692;0;0;5,48675620154892;3,19948998451054e-19;3,84169605613205e-08;1,92084802806602e-08;1,93846620855886e-08;0;0;0,000783673469387754
132;0,987565838546744;0,00286250967694708;0,000166463509153201;0,00940518826715588;61253,25355015;591,96085633;61086,515996853;758,698409626981;490,700106063662;20,0890792562487;99,69710268139;0,561511558111426;99,9831469003487;76,6662849868823;99,7109826589595;98,2608695652174;0,0232503856464184;35,0646985929811;0,566463579346839;2,39967288681137;1,63879233012315e-05;2,74670288280227e-08;8,20769516502978e-06;1,40722693627495e-08;0,0320069313457965;8,35310234220997e-06;0,000149902165621994
133;0,998405235138268;0;0,00031895297234643;0,00127581188938572;61405,02361106;98,0829933;61424,64020972;78,46639464;0;24,9482444587654;99,9681047027654;0,0286832223760257;99,9680639583838;100;100;80;0,0287106915317996;0;0;17,9858630349251;0;4,28341046604728e-08;2,14170523302364e-08;2,14580930503168e-08;0;0;0,00842105263157895
134;1;0;0;0;61070,28352584;0;61070,28352584;0;0;0;100;0;100;100;100;100;0;0;0;0;0;0;0;0;0;0;0
135;0,999974306857527;0;0;2,56931424730809e-05;60542,92517715;1,55557797;60542,92517715;1,55557797;0;0;100;0;100;100;100;100;0;0;0;0;0;0;0;0;0;0;0
136;0,997717190320177;0;0,000211651228592834;0,00207115845122988;59789,55519647;136,80046478;59802,2386832708;124,116977979205;0;8,97950478785442;99,9788348771407;0,0105954527972317;99,9787909498372;100;100;90,728476821192;0,0106151913455998;0;0;4,641408738925;0;5,8448430775098e-09;2,9224215387549e-09;2,93332019327325e-09;0;0;0,000560794117217081
137;0,999810890050726;0;0;0,000189109949273573;47084,81807259;8,90589175;47084,81807259;8,90589175;0;0;100;0;100;100;100;100;0;0;0;0;0;0;0;0;0;0;0
138;0,999920677495815;0;1,13317863121428e-05;6,79907178728568e-05;51575,31499202;4,09140768;51575,8994788314;3,50692086857143;0;1,62008501448161;99,9988668213688;0,00222098930523038;99,9988667443179;100;100;85,7142857142857;0,00222111515095648;0;0;27,9994854934293;0;2,56818762048134e-10;1,28409381024067e-10;1,28423933304509e-10;0;0;0,0204081632653061
139;1;0;0;0;10633,75344904;0;10633,75344904;0;0;0;100;0;100;100;100;100;0;0;0;0;0;0;0;0;0;0;0
142;1;0;0;0;16196,86327043;0;16196,86327043;0;0;0;100;0;100;100;100;100;0;0;0;0;0;0;0;0;0;0;0
143;1;0;0;0;136,82778196;0;136,82778196;0;0;0;100;0;100;100;100;100;0;0;0;0;0;0;0;0;0;0;0
146;1;0;0;0;44179,50714735;0;44179,50714735;0;0;0;100;0;100;100;100;100;0;0;0;0;0;0;0;0;0;0;0
147;0,999948738124734;0;0;5,12618752661146e-05;62306,49088205;3,1941113;62306,49088205;3,1941113;0;0;100;0;100;100;100;100;0;0;0;0;0;0;0;0;0;0;0
148;1;0;0;0;62247,61357443;0;62247,61357443;0;0;0;100;0;100;100;100;100;0;0;0;0;0;0;0;0;0;0;0
149;0,999872757470654;0;2,31350053356551e-05;0,000104107524010448;62085,5040945;7,90092191;62086,9406257564;6,46439065363636;0;2,67106480933324;99,9976864994664;0,00304175304795917;99,9976862585885;100;100;81,8181818181818;0,00304199936468116;0;0;23,9051601975431;0;4,8170562469271e-10;2,40852812346355e-10;2,40891821744129e-10;0;0;0,0148760330578512
150;0,998680509664837;0;0;0,00131949033516333;61763,58123647;81,60412436;61763,58123647;81,60412436;0;0;100;0;100;100;100;100;0;0;0;0;0;0;0;0;0;0;0
151;0,99420841086021;0;0,000400482227751461;0,00539110691203889;61146,87716184;356,20055698;61171,5080514184;331,569667401596;0;18,317648922405;99,9599517772249;0,0210599765879091;99,9597347027023;100;100;93,0851063829787;0,0211656027530244;0;0;3,63630362575606;0;2,3091363702456e-08;1,1545681851228e-08;1,16617868577825e-08;0;0;0,000344210485544067
152;0,999231266148103;0;7,6873385189688e-05;0,000691860466707192;61023,30806844;46,94677224;61028,002745664;42,252095016;0;13,0127422376579;99,992312661481;0,0150669066341463;99,9923073392332;100;100;90;0,0150761781998164;0;0;19,5996398454005;0;1,18190347010443e-08;5,90951735052214e-09;5,91679254475384e-09;0;0;0,01
153;0,999985056667533;0;0;1,49433324669288e-05;60543,54758105;0,90473588;60543,54758105;0,90473588;0;0;100;0;100;100;100;100;0;0;0;0;0;0;0;0;0;0;0
154;0,999855887044503;0;0;0,000144112955497412;59917,6913528;8,63616017;59917,6913528;8,63616017;0;0;100;0;100;100;100;100;0;0;0;0;0;0;0;0;0;0;0
155;1;0;0;0;59219,31886319;0;59219,31886319;0;0;0;100;0;100;100;100;100;0;0;0;0;0;0;0;0;0;0;0
156;1;0;0;0;58421,57431907;0;58421,57431907;0;0;0;100;0;100;100;100;100;0;0;0;0;0;0;0;0;0;0;0
157;1;0;0;0;49310,83901506;0;49310,83901506;0;0;0;100;0;100;100;100;100;0;0;0;0;0;0;0;0;0;0;0
158;1;0;0;0;12708,01157569;0;12708,01157569;0;0;0;100;0;100;100;100;100;0;0;0;0;0;0;0;0;0;0;0
159;1;0;0;0;18841,69570024;0;18841,69570024;0;0;0;100;0;100;100;100;100;0;0;0;0;0;0;0;0;0;0;0
160;1;0;0;0;54343,5950703;0;54343,5950703;0;0;0;100;0;100;100;100;100;0;0;0;0;0;0;0;0;0;0;0
161;0,999788755161473;0;0;0,000211244838526569;16467,43934525;3,47939657;16467,43934525;3,47939657;0;0;100;0;100;100;100;100;0;0;0;0;0;0;0;0;0;0;0
163;1;0;0;0;7960,17999548;0;7960,17999548;0;0;0;100;0;100;100;100;100;0;0;0;0;0;0;0;0;0;0;0
164;0,989030191114001;0,0102667493887267;0,000100437071038901;0,000602622426233404;51012,66075672;35,89016855;50493,6852446483;554,865680621683;835,836376203855;14,2115205285713;98,9632813540235;1,15793883187504;99,9898459244738;5,54422496987346;98,972602739726;85,7142857142857;0,0198999564304813;6,1483115949791;1,1585860466968;27,9994854934293;6,97878014436555e-05;2,01752104777464e-08;3,49039883270664e-05;1,03087989334089e-08;0,000984046354091177;3,49430174903705e-05;0,0204081632653061
165;0,999615924665167;0;7,20141252812193e-05;0,00031206120955195;62285,74883294;23,93161138;62290,2360100738;19,44443424625;0;6,68500477794345;99,9927985874719;0,00758632074027783;99,9927963394889;100;100;81,25;0,00758814221232344;0;0;19,7521685259302;0;2,99637533867773e-09;1,49818766933886e-09;1,49890718401715e-09;0;0;0,01015625
166;1;0;0;0;62247,61825663;0;62247,61825663;0;0;0;100;0;100;100;100;100;0;0;0;0;0;0;0;0;0;0;0
167;0,999869814219428;0;8,13661128577242e-05;4,88196677146345e-05;62085,3213345;8,0836784;62090,3736335;3,0313794;0;4,09995168267152;99,9918633887142;0,00466893969939631;99,9918629914682;100;100;37,5;0,00466878771603956;0;0;35,8636686654213;0;1,13493331227016e-09;5,67466656135078e-10;5,67429712379507e-10;0;0;0,0334821428571429
168;0,998697501505823;0;0,000217083082362745;0,00108541541181372;61764,63209654;80,5532608;61778,0576400067;67,1277173333333;0;17,3506619366837;99,9782916917637;0,0198378752405958;99,9782681036285;100;100;83,3333333333333;0,0198551151420848;0;0;15,2306319963454;0;2,04891585426567e-08;1,02445792713283e-08;1,02623929008878e-08;0;0;0,00603864734299517
169;1;0;0;0;61502,93523212;0;61502,93523212;0;0;0;100;0;100;100;100;100;0;0;0;0;0;0;0;0;0;0;0
170;1;0;0;0;61070,25484068;0;61070,25484068;0;0;0;100;0;100;100;100;100;0;0;0;0;0;0;0;0;0;0;0
171;0,999955559856155;0;1,1110035961328e-05;3,3330107883984e-05;60541,76171276;2,69060417;60542,4343638025;2,0179531275;0;1,86445930450709;99,9988889964039;0,00217752703511477;99,9988889593728;100;100;75;0,00217757542072844;0;0;48,9990996135013;0;2,46865798124002e-10;1,23432899062001e-10;1,2343838459015e-10;0;0;0,0625
172;0,999996556755293;0;0;3,44324470668324e-06;59926,12117196;0,20634101;59926,12117196;0,20634101;0;0;100;0;100;100;100;100;0;0;0;0;0;0;0;0;0;0;0
173;1;0;0;0;59219,31886319;0;59219,31886319;0;0;0;100;0;100;100;100;100;0;0;0;0;0;0;0;0;0;0;0
174;1;0;0;0;58421,57431907;0;58421,57431907;0;0;0;100;0;100;100;100;100;0;0;0;0;0;0;0;0;0;0;0
175;1;0;0;0;57534,30959;0;57534,30959;0;0;0;100;0;100;100;100;100;0;0;0;0;0;0;0;0;0;0;0
176;1;0;0;0;56490,97586632;0;56490,97586632;0;0;0;100;0;100;100;100;100;0;0;0;0;0;0;0;0;0;0;0
177;0,999998515165077;0;7,42417461584162e-07;7,42417461584162e-07;55238,44902481;0,0820201;55238,49003486;0,04101005;0;0,113671970263543;99,9999257582539;0,000145511148619861;99,9999257581987;100;100;50;0,00014551114861978;0;0;97,9981992270027;3,27499417293556e-19;1,10236737453014e-12;5,51183687265070e-13;5,51183687264463e-13;0;0;0,25
178;0,999619027012125;0;0;0,000380972987875456;54332,09143667;20,706948;54332,09143667;20,706948;0;0;100;0;100;100;100;100;0;0;0;0;0;0;0;0;0;0;0
179;0,99944264793571;0;9,28920107149915e-05;0,000464460053574958;41029,76459061;22,88077664;41033,5780533833;19,0673138666667;0;10,5701852831556;99,9907107989285;0,0182064995452892;99,9907064824609;100;100;83,3333333333333;0,0182132668559604;0;0;32,6660664090009;0;1,72578513093482e-08;8,6289256546741e-09;8,63534154731576e-09;0;0;0,0277777777777778
180;1;0;0;0;4682,21505383;0;4682,21505383;0;0;0;100;0;100;100;100;100;0;0;0;0;0;0;0;0;0;0;0
181;1;0;0;0;5888,5691487;0;5888,5691487;0;0;0;100;0;100;100;100;100;0;0;0;0;0;0;0;0;0;0;0
182;0,999843074972003;0;3,92312569991513e-05;0,000117693770997454;31008,30491074;4,86674283;31009,5215964475;3,6500571225;0;3,37241875011169;99,9960768743001;0,00768918507865715;99,9960764125183;100;100;75;0,0076897884269521;0;0;48,9990996135013;0;3,07818305146692e-09;1,53909152573346e-09;1,53933307140337e-09;0;0;0,0625
183;0,999961588495696;0;0;3,84115043035882e-05;55967,6252916;2,14988326;55967,6252916;2,14988326;0;0;100;0;100;100;100;100;0;0;0;0;0;0;0;0;0;0;0
184;1;0;0;0;62247,61495876;0;62247,61495876;0;0;0;100;0;100;100;100;100;0;0;0;0;0;0;0;0;0;0;0
185;0,99879317817681;0;7,09895190111964e-05;0,00113583230417914;62018,46934016;74,93567625;62022,8773211159;70,5276952941176;0;12,2180753288358;99,9929010480989;0,0139136900541766;99,9928929757111;100;100;94,1176470588235;0,0139285216697069;0;0;11,5291999090592;0;1,0079023618882e-08;5,03951180944102e-09;5,05026150113565e-09;0;0;0,00346020761245675
186;0,99332690351428;0;0,000545980621558922;0,00612711586416124;61432,48647173;412,69888909;61466,2527444737;378,932616346273;0;30,031179939427;99,9454019378441;0,0343361425118391;99,9450653468594;100;100;91,8181818181818;0,0345288422884048;0;0;5,1454587214969;0;6,1381404181253e-08;3,06907020906265e-08;3,10361507288552e-08;0;0;0,000689210705891273
187;0,999669495390411;0;0;0,000330504609589424;61482,75066811;20,32705069;61482,75066811;20,32705069;0;2,773544259366e-07;100;0;100;100;100;100;0;0;0;0;0;5,29395592033938e-24;0;0;0;0;0
188;1;0;0;0;61070,25484069;0;61070,25484069;0;0;0;100;0;100;100;100;100;0;0;0;0;0;0;0;0;0;0;0
189;0,999546150945157;0;0;0,000453849054842574;60516,97427447;27,47804246;60516,97427447;27,47804246;0;0;100;0;100;100;100;100;0;0;0;0;0;0;0;0;0;0;0
190;0,99992782895199;0;8,01900533444159e-06;6,41520426755327e-05;59922,00256711;4,32494586;59922,48311665;3,84439632;6,61510660242059e-05;1,33199089055096;99,9991980994665;0,00157169616473401;99,9991980480197;100;100;88,8888888888889;0,00157178439366499;0;0;21,7773776060006;3,1720657846433e-19;1,28608893107605e-10;6,43044465538026e-11;6,43116663612293e-11;0;0;0,0123456790123457
191;1;0;0;0;59219,31886319;0;59219,31886319;0;0;0;100;0;100;100;100;100;0;0;0;0;0;0;0;0;0;0;0
192;0,999983795899186;0;4,0510252035907e-06;1,21530756107721e-05;58420,62764999;0,94666908;58420,86431726;0,71000181;0;0,655996149182795;99,9995948974796;0,000793986349950182;99,9995948925563;100;100;75;0,000793992782906702;0;0;48,9990996135013;0;3,28216104002542e-11;1,64108052001271e-11;1,64110711251622e-11;0;0;0,0625
193;0,999996500744071;0;2,33283728613595e-06;1,16641864306798e-06;57534,1071295;0,20132727;57534,24134768;0,06710909;0;0,186013488959253;99,9997667162714;0,000228613853130931;99,9997667159993;100;100;33,3333333333333;0,000228613586470538;0;0;65,3321328180018;0;2,72106490179307e-12;1,36053245089654e-12;1,36052927698645e-12;0;0;0,111111111111111
194;0,999380846059999;0;0;0,000619153940001329;56525,4144663;35,01961561;56525,4144663;35,01961561;0;0;100;0;100;100;100;100;0;0;0;0;0;0;0;0;0;0;0
195;0,999912885289526;0;4,3557355237129e-05;4,3557355237129e-05;55494,88459321;4,83484199;55497,302014205;2,417420995;0;2,9966110473795;99,9956442644763;0,0038179003673245;99,9956440747437;100;100;50;0,00381790036008038;0;0;43,8261270288291;3,42661427353443e-19;7,58897278101381e-10;3,7944863905069e-10;3,79448637610752e-10;0;0;0,05
196;0,999798958696152;0;0;0,000201041303848197;39611,04624764;7,96505769;39611,04624764;7,96505769;0;0;100;0;100;100;100;100;0;0;0;0;0;3,30872245021211e-24;0;0;0;0;0
197;1;0;0;0;5904,44786128;0;5904,44786128;0;0;0;100;0;100;100;100;100;0;0;0;0;0;0;0;0;0;0;0
201;0,998832724726304;0;0;0,00116727527369576;26320,69661865;30,75940304;26320,69661865;30,75940304;0;0;100;0;100;100;100;100;0;0;0;0;0;0;0;0;0;0;0
202;0,995052747764919;0,00282685439705943;6,23646422947363e-05;0,0020580331957263;62115,62718454;131,98971229;61943,5442853702;304,072611459804;487,740993013782;10,7602968845603;99,7110780960646;0,554188095925496;99,993732921798;42,1306152216423;99,7167138810198;97,0588235294118;0,0122825273279284;47,8072834464402;0,555230590521266;5,76459995452956;1,59822115643484e-05;7,77869721710081e-09;7,99499513078293e-06;3,92716633453455e-09;0,0594965729742039;8,02510252068484e-06;0,000865051903114184
203;0,999780754360191;0;0;0,000219245639809406;62079,7913046;13,61370831;62079,7913046;13,61370831;0;0;100;0;100;100;100;100;0;0;0;0;0;0;0;0;0;0;0
204;0,99999790760155;0;0;2,09239845029687e-06;61845,05595256;0,12940477;61845,05595256;0,12940477;0;0;100;0;100;100;100;100;0;0;0;0;3,06691443266618e-19;0;0;0;0;0;0
205;0,999989744312099;0;5,12784395050427e-06;5,12784395050427e-06;61502,44695897;0,63075637;61502,762337155;0,315378185;6,70351878565533e-05;0,87416766541592;99,9994872156049;0,001005038946133;99,9994872129755;100;100;50;0,00100503894610657;0;0;97,9981992270027;3,09254324408122e-19;5,25895671614464e-11;2,62947835807232e-11;2,62947835793404e-11;0;0;0,25
206;0,999952149361292;0;0;4,78506387076355e-05;61067,33258654;2,9222507;61067,33258654;2,9222507;6,75103290370664e-05;0;100;0;100;100;100;100;0;0;0;0;3,18115479835288e-19;0;0;0;0;0;0
207;0,99907625333399;0;5,1319259222772e-05;0,000872427406787124;60488,52457754;55,92773597;60491,6316739828;52,8206395272222;0;8,612273685338;99,9948680740777;0,0100583899789908;99,9948635929354;100;100;94,4444444444444;0,0100666557655219;0;0;10,8886888030003;3,18115479835288e-19;5,26733273434814e-09;2,63366636717407e-09;2,63799673591721e-09;0;0;0,00308641975308642
208;0,999296294359048;0;3,05958974326801e-05;0,000673109743518962;59884,15701486;42,17049471;59885,99051463;40,33699494;0;5,08210868637451;99,9969404102567;0,00599668570427345;99,9969383494299;100;100;95,6521739130435;0,00600054112941199;0;0;8,52158254147849;3,18115479835288e-19;1,87221787942216e-09;9,36108939711081e-10;9,37313024203103e-10;0;0;0,00189035916824196
209;0,999971518090509;0;0;2,84819094913369e-05;59217,63218391;1,68667928;59217,63218391;1,68667928;0;0;100;0;100;100;100;100;0;0;0;0;0;0;0;0;0;0;0
210;0,997085014269851;0,00265889337138627;0;0,000256092358762683;58406,6130003;14,96131877;58251,2762635971;170,298055472926;430,563554917166;0;99,7341106628614;0,521133524664933;100;8,78537263884296;99,7340425531915;100;0;15,706259421521;0,521267017164904;0;1,41394279208036e-05;0;7,06971396040174e-06;0;0,00642169021016716;7,07333635129008e-06;0
211;0,996833232618725;0,00263712495401779;0,00014123798060177;0,000388404446654867;57503,83712622;30,47261146;57360,2379920212;174,071745658758;420,552969857569;9,98260356376684;99,722163706538;0,517012584043946;99,9858333402944;12,8375697346889;99,7361477572559;73,3333333333333;0,0123045033655133;22,2140845522808;0,517140893018487;23,1642984819409;1,39088560462067e-05;7,83677995746875e-09;6,95834641308218e-06;3,94123196782233e-09;0,0128457853000417;6,96180060010731e-06;0,013968253968254
212;0,999242675670382;0;0;0,000757324329618137;35062,77107918;26,57401475;35062,77107918;26,57401475;0;0;100;0;100;100;100;100;0;0;0;0;0;0;0;0;0;0;0
213;0,988568963077989;0,0104059890850315;5,69471020544321e-05;0,000968100734925346;15444,17824558;15,84726571;15284,1817925058;175,843718784236;445,919701968488;2,44030957255272;98,9537063812914;2,03956692341882;99,994239772449;8,51145674290993;98,9583333333333;94,4444444444444;0,0112898136447751;15,2886372866822;2,04162915056255;10,8886888030003;0,000216569217675588;6,48594486479581e-09;0,000108287851810226;3,31800750920764e-09;0,00608473085340777;0,000108506944444444;0,00308641975308642
214;0,999851058864033;0;0;0,000148941135967323;1068,50214589;0,15916763;1068,50214589;0,15916763;0;0;100;0;100;100;100;100;0;0;0;0;0;0;0;0;0;0;0
219;0,998313851526531;0;0;0,00168614847346909;8771,80797693;14,81555185;8771,80797693;14,81555185;0;0;100;0;100;100;100;100;0;0;0;0;0;0;0;0;0;0;0
220;0,996261542707926;0,00283028847360206;0,000113521102309066;0,000794647716163461;61793,36453838;56,16981854;61625,3337415095;224,200615410545;485,210539564728;13,2947297381267;99,7056190424089;0,554934540296888;99,9886065893826;21,9217021918078;99,7167138810198;87,5;0,0152531486509521;33,7062924287874;0,555230590521266;16,7363787105299;1,60210656876093e-05;1,20279046248344e-08;8,01654679611724e-06;6,05651536636811e-09;0,0295750703658369;8,02510252068484e-06;0,00729166666666667
221;0,999990143447402;0;0;9,85655259844587e-06;62092,82215145;0,6120272;62092,82215145;0,6120272;0;0;100;0;100;100;100;100;0;0;0;0;0;0;0;0;0;0;0
222;1;0;0;0;61845,21440649;0;61845,21440649;0;0;0;100;0;100;100;100;100;0;0;0;0;0;0;0;0;0;0;0
223;1;0;0;0;61503,10660424;0;61503,10660424;0;0;0;100;0;100;100;100;100;0;0;0;0;0;0;0;0;0;0;0
224;0,999989603770224;0;0;1,03962297756709e-05;61069,64862514;0,6349007;61069,64862514;0,6349007;0;0;100;0;100;100;100;100;0;0;0;0;0;0;0;0;0;0;0
225;1;0;0;0;60544,48075511;0;60544,48075511;0;0;0;100;0;100;100;100;100;0;0;0;0;0;0;0;0;0;0;0
226;0,993604347093436;0,00558204689378335;3,53741744687178e-05;0,000778231838311791;59877,59921794;48,75644329;59545,2073358259;381,14832540409;654,712043707711;5,87580358411297;99,4382578931748;0,772564866245624;99,9964399395765;12,2358134146651;99,4413407821229;95,6521739130435;0,00697739670606953;14,8926548978946;0,773162805250756;8,5215825414785;3,10719667190056e-05;2,50266443868657e-09;1,55372346917224e-05;1,2673327260885e-09;0,00577361831169414;1,55612945843112e-05;0,00189035916824197
227;0,983260034528998;0,0166184794568281;0;0,000121486014173785;59212,15235655;7,19432239;58228,0168603193;991,329818620748;1105,87307987976;0;98,3381520543172;1,32046433770051;100;0,725724401189663;98,3379501385042;100;0;0,572458283997075;1,32062477514066;0;9,07793704696684e-05;0;4,53896852348343e-05;0;8,53083430574588e-06;4,54007156687463e-05;0
228;0,9724323177926;0,0261406537041022;5,70811401319091e-05;0,00136994736316582;58338,2324692;83,36929092;56814,3883803865;1607,21337973346;1322,70189205472;6,46899430389381;97,3802265155766;1,60095347423246;99,994130410039;4,97970713113854;97,3821989528796;96;0,00805135954573652;2,91045048405268;1,60322217141899;5,48675620154893;0,000133438406667159;3,19176152694724e-09;6,67207992143429e-05;1,68749408910777e-09;0,000220507948035009;6,69100321232905e-05;0,000783673469387756
229;0,978793122816868;0,0208888776210917;0;0,000317999562040853;52397,54951976;16,66769812;51302,6753506904;1111,54186718961;1136,68981084658;0;97,9111122378908;1,5334791131462;100;1,49951149947614;97,910447761194;100;0;1,08430371172147;1,53396691395302;0;0,00012243047759813;0;6,1215238799065e-05;0;3,06059388927801e-05;6,12541902161371e-05;0
230;1;0;0;0;1094,15657834;0;1094,15657834;0;0;0;100;0;100;100;100;100;0;0;0;0;0;0;0;0;0;0;0
238;0,994662378393034;0,00462633664368853;0,000237094987759244;0,000474189975518488;35538,98768915;25,29634046;35382,8874522239;181,396577386065;456,052027332493;11,6860983285218;99,5136568368552;0,907042962288297;99,9761689503208;9,29688267350345;99,537037037037;66,6666666666667;0,0233494442254702;17,0361762288094;0,90739073358336;32,6660664090009;4,28059814814708e-05;2,81070166102781e-08;2,14170442490405e-05;1,41924349859315e-08;0,00755523654023206;2,14334705075447e-05;0,0277777777777778
239;0,994116507125323;0,00560065637817083;0;0,000282836496506329;62075,84273178;17,56228113;61728,0789069521;365,326105957899;680,646588782774;0;99,4399343621829;0,775106178216063;100;4,80728884237578;99,4397759103641;100;0;6,33324346874318;0,775325468555241;0;3,12792413273955e-05;0;1,56396206636976e-05;0;0,0010441338748265;1,56484713294879e-05;0
240;1;0;0;0;61845,18535734;0;61845,18535734;0;0;0;100;0;100;100;100;100;0;0;0;0;0;0;0;0;0;0;0
241;1;0;0;0;61503,07771535;0;61503,07771535;0;0;0;100;0;100;100;100;100;0;0;0;0;0;0;0;0;0;0;0
242;1;0;0;0;61070,25484069;0;61070,25484069;0;0;0;100;0;100;100;100;100;0;0;0;0;0;0;0;0;0;0;0
243;0,999965404628338;0;3,45953716623893e-05;0;60542,3577591;2,09455783;60544,45231693;0;0;0;99,9965404628338;0;99,9965404628338;100;100;0;0;0;0;0;0;0;0;0;0;0;0
244;0,999936008360279;0;2,13305465735964e-05;4,26610931471929e-05;59922,49272901;3,83478396;59923,77099033;2,55652264;0;3,54309450381253;99,9978669453426;0,00418071030548032;99,9978668543403;100;100;66,6666666666667;0,00418079948231604;0;0;65,3321328180018;0;9,09984434256733e-10;4,54992217128367e-10;4,55011627800705e-10;0;0;0,111111111111111
245;0,996807135178883;0,00274602516578205;0;0,000446839655334978;59192,85732316;26,46154003;59030,2395832612;189,079279928791;450,745095265675;0;99,7253974834218;0,538211042557343;100;13,9949443640602;99,7252747252747;100;0;23,5908314905663;0,538451644104409;0;1,50813084222169e-05;1,47054331120538e-24;7,54065421110829e-06;0;0,0144873954503496;7,54739765728774e-06;0
246;0,966169550848281;0,0259722997539861;0,000390609765384377;0,00746753963234839;57962,48886002;459,08545905;56467,9662571435;1953,6080619265;1314,18266269595;14,9768152242234;97,363709048063;1,59072710031415;99,9595876406559;22,331266445616;97,3821989528796;95,0292397660819;0,0187585770079698;10,6305940531754;1,60322217141899;2,30680527924821;0,000131725171589531;1,71078821336665e-08;6,58711397358322e-05;9,16017137729851e-09;0,00294183890022771;6,69100321232905e-05;0,000138524212929241
247;0,999677984041589;0;1,78897754672701e-05;0,000304126182943592;32397,91996778;10,43600781;32398,4997459917;9,85622959833333;0;1,6070336816469;99,9982110224533;0,00350633156073576;99,9982104782128;100;100;94,4444444444444;0,00350733548672243;0;0;10,8886888030003;0;6,40088132538679e-10;3,2004406626934e-10;3,20227361286661e-10;0;0;0,00308641975308642
256;0,999829609160241;0;0;0,000170390839759408;25230,05395193;4,29970271;25230,05395193;4,29970271;0;0;100;0;100;100;100;100;0;0;0;0;0;0;0;0;0;0;0
257;0,99986012992026;0;2,1518473806168e-05;0,000118351605933924;62084,7199999;8,68500951;62086,0561552092;7,34885420076923;0;2,50732570038624;99,9978481526194;0,00285529035670976;99,9978478979147;100;100;84,6153846153846;0,00285556686887123;0;0;20,4138752334702;3,06691443266618e-19;4,24457655367843e-10;2,12228827683921e-10;2,1226993502228e-10;0;0;0,0108481262327416
258;0,99994095737689;0;4,72340984877848e-05;1,18085246219462e-05;61841,5338519;3,65150197;61844,455053476;0,730300394;0;2,02425221793735;99,9952765901512;0,0023144282969569;99,9952765343741;100;100;20;0,00231434630474718;0;0;39,1992796908011;3,0754100405129e-19;2,78882507494219e-10;1,39441253747109e-10;1,39431374077026e-10;0;0;0,04
259;0,999996151076844;0;0;3,84892315604685e-06;61502,84099817;0,23672062;61502,84099817;0,23672062;0;0;100;0;100;100;100;100;0;0;0;0;0;0;0;0;0;0;0
260;0,999804882743483;0;3,25195427528967e-05;0,000162597713764484;61058,33898353;11,91586058;61060,3249602933;9,92988381666667;0;3,71129871478284;99,9967480457247;0,00429715660255669;99,9967475168784;100;100;83,3333333333333;0,00429771563700047;0;0;22,0234574801635;0;9,61382418961344e-10;4,80691209480672e-10;4,80816287734691e-10;0;0;0,0126262626262626
261;0,999771278511254;0;4,57442977491586e-05;0,000182977190996635;60530,60450304;13,84781727;60533,374066494;11,078253816;6,52671319431702e-05;5,11779811023694;99,9954255702251;0,0059771450724285;99,9954247330556;100;100;80;0,00597796543340867;0;0;26,1328531272007;3,02513085728925e-19;1,86003624583438e-09;9,30018122917191e-10;9,30273429732396e-10;0;0;0,0177777777777778
262;0,999886251915929;0;1,13748084070788e-05;0,000102373275663709;59919,51100804;6,81650494;59920,192658534;6,134854446;0;1,05256057372974;99,9988625191593;0,00124197952750015;99,9988624026997;100;100;90;0,00124209255585819;0;0;10,9186852477202;0;8,03087170123963e-11;4,01543585061982e-11;4,01616674636009e-11;0;0;0,00310344827586207
263;0,999995200961013;0;0;4,79903898686273e-06;59219,03466739;0,28419582;59219,03466739;0,28419582;0;0;100;0;100;100;100;100;0;0;0;0;0;0;0;0;0;0;0
264;0,9967237912991;0,00326794685671836;0;8,2618441816116e-06;50047,70904928;0,41348979;49884,1544445438;163,968094526209;453,341904387822;0;99,6732053143282;0,640505814255885;100;0,252176980646626;99,6732026143791;100;0;0,493011395401301;0,64051110605884;0;2,13589533166706e-05;0;1,06794766583354e-05;0;6,32728990054927e-06;1,06796531248665e-05;0
265;0,999566492544737;0;0;0,000433507455262917;12767,78979892;5,53733254;12767,78979892;5,53733254;2,93099266309869e-05;0;100;0;100;100;100;100;0;0;0;0;1,37064570941377e-18;5,29395592033938e-24;0;0;0;0;0
274;0,999862915493932;0;0,000102813379551223;3,42711265170742e-05;10984,09477482;1,50595565;10985,2242415575;0,3764889125;0;0,683167011381833;99,9897186620449;0,00439732007637213;99,9897183096798;100;100;25;0,00439701864832189;0;0;32,0774404233645;1,65704929048531e-18;1,00672295378512e-09;5,03361476892559e-10;5,03292470285988e-10;0;0;0,0267857142857143
275;0,999918872697067;0;1,05818221216611e-05;7,05454808110742e-05;60398,38081952;4,90035529;60399,0199962969;4,26117851304348;6,75517410865591e-05;0,975275032909805;99,9989418177878;0,00114169888767574;99,9989417431326;100;100;86,9565217391304;0,00114176735209569;0;0;14,0729303995518;3,2557859959682e-19;6,78636117663497e-11;3,39318058831748e-11;3,39358755920762e-11;0;0;0,00515552500429627
276;0,999856485288916;0;0;0,000143514711083748;61836,28062194;8,87568974;61836,28062194;8,87568974;0;9,0013640469128e-08;100;0;100;100;100;100;0;0;0;0;0;5,51453741702018e-25;0;0;0;0;0
277;0,999677635096029;0;0;0,000322364903971311;61483,22240549;19,82642443;61483,22240549;19,82642443;0;0;100;0;100;100;100;100;0;0;0;0;0;0;0;0;0;0;0
278;0,999820314305669;0;0;0,000179685694331602;60888,81918621;10,94281602;60888,81918621;10,94281602;0;0;100;0;100;100;100;100;0;0;0;0;0;0;0;0;0;0;0
279;0,999648024696168;0;2,70750233716618e-05;0,000324900280459942;36522,39887455;12,85950867;36523,3880675246;11,8703156953846;0;2,74185265307859;99,9972924976628;0,00530660706890373;99,9972916177087;100;100;92,3076923076923;0,00530818797746022;0;0;15,0766460349235;0;1,46611378115207e-09;7,33056890576033e-10;7,33493730357414e-10;0;0;0,00591715976331361
280;0,999876539188078;0;0;0,000123460811921888;32273,28906475;3,98497846;32273,28906475;3,98497846;0;0;100;0;100;100;100;100;0;0;0;0;0;0;0;0;0;0;0
281;0,99994604718529;0;1,34882036774444e-05;4,04646110323332e-05;18359,96876711;0,99062544;18360,21642347;0,74296908;0;0,686455792897041;99,9986511796323;0,00264363934239317;99,9986511250506;100;100;75;0,00264371065972785;0;0;48,9990996135013;0;3,63863276888449e-10;1,81931638444224e-10;1,819414544992e-10;0;0;0,0625
282;1;0;0;0;1845,16092701;0;1845,16092701;0;0;0;100;0;100;100;100;100;0;0;0;0;0;0;0;0;0;0;0
293;0,999758115694932;0;0;0,000241884305068308;30407,77709303;7,35694356;30407,77709303;7,35694356;0;0;100;0;100;100;100;100;0;0;0;0;0;0;0;0;0;0;0
294;0,999985529512198;0;0;1,44704878024732e-05;61844,26137863;0,89492958;61844,26137863;0,89492958;0;0;100;0;100;100;100;100;0;0;0;0;3,19029604777344e-19;0;0;0;0;0;0
295;0,999952595856039;0;4,74041439612259e-06;4,26637295651033e-05;58117,69803734;2,75515033;58117,973552373;2,479635297;0;0,763674675801055;99,9995259585604;0,000929104148819547;99,9995259383351;100;100;90;0,000929139384844394;0;0;19,5996398454005;0;4,49430572939326e-11;2,24715286469663e-11;2,24732331326417e-11;0;0;0,01
296;0,999174962377738;0;6,87531351885098e-05;0,000756284487073607;16048,6858773;13,25170279;16049,7901858658;12,1473942241667;0;3,06093092930105;99,9931246864812;0,0134753668793693;99,9931194828528;100;100;91,6666666666667;0,0134846379269184;0;0;16,3330332045005;0;9,453987196499e-09;4,7269935982495e-09;4,73350017552004e-09;0;0;0,00694444444444445
311;1;0;0;0;4812,54649281;0;4812,54649281;0;0;0;100;0;100;100;100;100;0;0;0;0;0;0;0;0;0;0;0
312;0,999543312976012;0;0;0,000456687023988209;22809,95628397;10,42177054;22809,95628397;10,42177054;0;0;100;0;100;100;100;100;0;0;0;0;0;0;0;0;0;0;0
313;0,999867140288118;0;0;0,000132859711881902;8750,01097334;1,16267841;8750,01097334;1,16267841;0;0;100;0;100;100;100;100;0;0;0;0;0;0;0;0;0;0;0
